{
	"id": "https://testing.commons.pub/activities/c0e31b9f-224f-4510-860f-959bb0143ec8",
	"to": [
		"https://www.w3.org/ns/activitystreams#Public"
	],
	"cc": [
		"https://testing.commons.pub/users/admin/followers"
	],
	"type": "Create",
	"actor": "https://testing.commons.pub/users/admin",
	"object": {
		"id": "https://testing.commons.pub/objects/9ec15033-a7c0-4682-b966-ccfbcf09c545",
		"to": [
			"https://www.w3.org/ns/activitystreams#Public"
		],
		"cc": [
			"https://testing.commons.pub/users/admin/followers"
		],
		"tag": [],
		"type": "Note",
		"actor": "https://testing.commons.pub/users/admin",
		"emoji": {},
		"content": "Test 1",
		"context": "https://testing.commons.pub/contexts/bd3a70b7-90b4-48f7-9439-8f99f6e1f1c4",
		"summary": "",
		"published": "2018-08-04T11:30:46.875730Z",
		"attachment": [],
		"context_id": 1
	},
	"context": "https://testing.commons.pub/contexts/bd3a70b7-90b4-48f7-9439-8f99f6e1f1c4",
	"published": "2018-08-04T11:30:46.829100Z",
	"context_id": 1
}